﻿// EVENT 0305
Name "Prior Chapter Grosbeak"

If(0,4,0)
 ShowMessageFace("alice_fc5",1,0,2,1)
 ShowMessage("\\n<Alice>Yeah, let's go!")
 0()
EndIf()
If(0,5,0)
 ShowMessageFace("iriasu_fc4",0,0,2,2)
 ShowMessage("\\n<Ilias>Yes, let us proceed!")
 0()
EndIf()
If(0,6,0)
 ShowMessageFace("sonia_fc1",3,0,2,3)
 ShowMessage("\\n<Sonya>Time to kick some ass!")
 0()
EndIf()
If(4,41,0)
 ShowMessageFace("stein_fc2",1,0,2,4)
 ShowMessage("\\n<Promestein>Uhuhu, I'm looking forward to this...")
 0()
EndIf()
If(4,129,0)
 ShowMessageFace("brunhild_fc1",0,0,2,5)
 ShowMessage("\\n<Hild>Hild shall persevere...")
 0()
EndIf()
If(4,79,0)
 ShowMessageFace("nuruko_fc1",0,0,2,6)
 ShowMessage("\\n<Nuruko>Kyuu!")
 0()
EndIf()
If(4,12,0)
 ShowMessageFace("sylph_fc1",0,0,2,7)
 ShowMessage("\\n<Sylph>Yay!")
 0()
EndIf()
If(4,13,0)
 ShowMessageFace("gnome_fc1",0,0,2,8)
 ShowMessage("\\n<Gnome>......")
 0()
EndIf()
If(4,531,0)
 ShowMessageFace("saniria_fc2",0,0,2,9)
 ShowMessage("\\n<King of San Ilia>By the grace of the Goddess...")
 0()
EndIf()
If(4,529,0)
 ShowMessageFace("sara_fc1",1,0,2,10)
 ShowMessage("\\n<Sara>Father, please watch over me!")
 0()
EndIf()
If(4,533,0)
 ShowMessageFace("grandnoa_fc1",0,0,2,11)
 ShowMessage("\\n<Queen of Grand Noah>Let's do it together...")
 0()
EndIf()
If(4,53,0)
 ShowMessageFace("slime_fc1",0,0,2,12)
 ShowMessage("\\n<Lime>Yay! ♪")
 0()
EndIf()
If(4,54,0)
 ShowMessageFace("bunnyslime_fc1",0,0,2,13)
 ShowMessage("\\n<Bunni>Hop hop!")
 0()
EndIf()
If(4,55,0)
 ShowMessageFace("name_fc1",2,0,2,14)
 ShowMessage("\\n<Melk>Slimy slime...")
 0()
EndIf()
If(4,56,0)
 ShowMessageFace("inp_fc1",0,0,2,15)
 ShowMessage("\\n<Rami>Let's do it! ♪")
 0()
EndIf()
If(4,57,0)
 ShowMessageFace("inp_fc3",1,0,2,16)
 ShowMessage("\\n<Rumi>Yawn-")
 0()
EndIf()
If(4,58,0)
 ShowMessageFace("inp_fc2",0,0,2,17)
 ShowMessage("\\n<Remi>*Shiver*-")
 0()
EndIf()
If(4,59,0)
 ShowMessageFace("mdg_fc1",0,0,2,18)
 ShowMessage("\\n<Ragora>Fufu, good going...")
 0()
EndIf()
If(4,60,0)
 ShowMessageFace("dog_fc1",0,0,2,19)
 ShowMessage("\\n<Pochi>Woof woof!")
 0()
EndIf()
If(4,61,0)
 ShowMessageFace("mimizu_fc1",0,0,2,20)
 ShowMessage("\\n<Mimi>Dig dig, dig a hole...")
 0()
EndIf()
If(4,62,0)
 ShowMessageFace("gob_fc1",0,0,2,21)
 ShowMessage("\\n<Gob>I'll give it all I've got!")
 0()
EndIf()
If(4,64,0)
 ShowMessageFace("pramia_fc1",0,0,2,22)
 ShowMessage("\\n<Teeny>You can leave it up to me!")
 0()
EndIf()
If(4,66,0)
 ShowMessageFace("vgirl_fc1",0,0,2,23)
 ShowMessage("\\n<Vanilla>Kukuku... Let me lend you some of my power...")
 0()
EndIf()
If(4,68,0)
 ShowMessageFace("dragonp_fc1",0,0,2,24)
 ShowMessage("\\n<Papi>Rawr! Let's do it!")
 0()
EndIf()
If(4,70,0)
 ShowMessageFace("nezumi_fc1",1,0,2,25)
 ShowMessage("\\n<Ratty>I'll do my best too!")
 0()
EndIf()
If(4,71,0)
 ShowMessageFace("okami_fc1",0,0,2,26)
 ShowMessage("\\n<Amara>Grrrr... Let's bear down!")
 0()
EndIf()
If(4,72,0)
 ShowMessageFace("phoenix_fc1",1,0,2,27)
 ShowMessage("\\n<Mini>This sounds fun!")
 0()
EndIf()
If(4,73,0)
 ShowMessageFace("hiru_fc1",0,0,2,28)
 ShowMessage("\\n<Hiru>Fufu, I'll be gentle...")
 0()
EndIf()
If(4,74,0)
 ShowMessageFace("usagi_fc1",0,0,2,29)
 ShowMessage("\\n<Barbun>You can count on me! ♪")
 0()
EndIf()
If(4,75,0)
 ShowMessageFace("hituzi_fc1",7,0,2,30)
 ShowMessage("\\n<Mary>*Glug* *Glug* *Glug*...")
 0()
EndIf()
If(4,76,0)
 ShowMessageFace("syuree_fc1",0,0,2,31)
 ShowMessage("\\n<Sully>Wow, this is gonna be fun! ♪")
 0()
EndIf()
If(4,77,0)
 ShowMessageFace("jeid_fc1",0,0,2,32)
 ShowMessage("\\n<Jaide>I shall accompany you...")
 0()
EndIf()
If(4,78,0)
 ShowMessageFace("syesta_fc1",0,0,2,33)
 ShowMessage("\\n<Shesta>I'm coming too...")
 0()
EndIf()
If(4,80,0)
 ShowMessageFace("orc_fc1",0,0,2,34)
 ShowMessage("\\n<Hip>The orcs are coming, no matter where!")
 0()
EndIf()
If(4,81,0)
 ShowMessageFace("mitubati_fc1",0,0,2,35)
 ShowMessage("\\n<Honey>I'll have to give it my best...")
 0()
EndIf()
If(4,82,0)
 ShowMessageFace("suzume_fc1",0,0,2,36)
 ShowMessage("\\n<Chirp>I'll try not to be a burden...")
 0()
EndIf()
If(4,83,0)
 ShowMessageFace("hapy_a_fc1",0,0,2,37)
 ShowMessage("\\n<Reina>I'll give it everything I've got! ♪")
 0()
EndIf()
If(4,84,0)
 ShowMessageFace("hapy_bc_fc1",0,0,2,38)
 ShowMessage("\\n<Pina & Pii>Sounds tough, but we'll make it...")
 ShowMessageFace("hapy_bc_fc1",0,0,2,39)
 ShowMessage("\\n<Pii>I'll make my feathers as pretty as yours, sister...")
 0()
EndIf()
If(4,85,0)
 ShowMessageFace("highslag_fc1",0,0,2,40)
 ShowMessage("\\n<Elizabeth>Fufufu, just what I was hoping for...")
 0()
EndIf()
If(4,86,0)
 ShowMessageFace("name_s_fc1",0,0,2,41)
 ShowMessage("\\n<Rosary>I obey only the Goddess...")
 0()
EndIf()
If(4,87,0)
 ShowMessageFace("name2_fc2",1,0,2,42)
 ShowMessage("\\n<Melty>I'm looking forward to sticking around. ♪")
 0()
EndIf()
If(4,88,0)
 ShowMessageFace("jack_fc1",0,0,2,43)
 ShowMessage("\\n<Pumpkin>I, I'll try hard...")
 0()
EndIf()
If(4,89,0)
 ShowMessageFace("ropa_fc1",0,0,2,44)
 ShowMessage("\\n<Cindy>I better eat up...")
 0()
EndIf()
If(4,90,0)
 ShowMessageFace("meda_fc1",0,0,2,45)
 ShowMessage("\\n<Meru Meru>*Rustle* *Squirm*")
 0()
EndIf()
If(4,91,0)
 ShowMessageFace("candle_fc1",0,0,2,46)
 ShowMessage("\\n<Chandra>I can't die yet...")
 0()
EndIf()
If(4,92,0)
 ShowMessageFace("eater_fc1",0,0,2,47)
 ShowMessage("\\n<Eater>I'm hungry...")
 0()
EndIf()
If(4,93,0)
 ShowMessageFace("liot_fc1",0,0,2,48)
 ShowMessage("\\n<Riot>I'll show you the strength of a dragon!")
 0()
EndIf()
If(4,94,0)
 ShowMessageFace("luksl_fc1",0,0,2,49)
 ShowMessage("\\n<Luxuru>Sounds fun, ahaha!")
 0()
EndIf()
If(4,95,0)
 ShowMessageFace("delh_a_fc1",0,0,2,50)
 ShowMessage("\\n<Lona>I, too, shall lend you my power...")
 0()
EndIf()
If(4,96,0)
 ShowMessageFace("delh_b_fc1",0,0,2,51)
 ShowMessage("\\n<Marion>Do you need my strength, as well...?")
 0()
EndIf()
If(4,97,0)
 ShowMessageFace("fairy_fc1",0,0,2,52)
 ShowMessage("\\n<Fell>Yesssss! This is gonna be fun! ♪")
 0()
EndIf()
If(4,98,0)
 ShowMessageFace("minikani_fc1",0,0,2,53)
 ShowMessage("\\n<Amy>I'll try my hardest! ♪")
 0()
EndIf()
If(4,99,0)
 ShowMessageFace("namazu_fc1",0,0,2,54)
 ShowMessage("\\n<Gigi>Oh dear, guess I better stick around and look after you...")
 0()
EndIf()
If(4,100,0)
 ShowMessageFace("rahure_fc1",0,0,2,55)
 ShowMessage("\\n<Fleesia>Oh, why not? I'll stick around...")
 0()
EndIf()
If(4,101,0)
 ShowMessageFace("cent2_fc1",0,0,2,56)
 ShowMessage("\\n<Lihitinu>I'll keep running, no matter the direction!")
 0()
EndIf()
If(4,102,0)
 ShowMessageFace("youko_fc1",0,0,2,57)
 ShowMessage("\\n<Kitsu>This is all part of my training! ♪")
 0()
EndIf()
If(4,103,0)
 ShowMessageFace("kamuro_fc1",0,0,2,58)
 ShowMessage("\\n<Kamuro>I may be inexperienced, but I'll try my best!")
 0()
EndIf()
If(4,104,0)
 ShowMessageFace("kumo_fc1",0,0,2,59)
 ShowMessage("\\n<Rachnee>Sure, I'll hang around and stick with you...")
 0()
EndIf()
If(4,105,0)
 ShowMessageFace("mimic_fc1",0,0,2,60)
 ShowMessage("\\n<Minelli>Fufufu...")
 0()
EndIf()
If(4,106,0)
 ShowMessageFace("nanabi_fc1",0,0,2,61)
 ShowMessage("\\n<Nanabi>I shall assist you, for the sake of the world...")
 0()
EndIf()
If(4,107,0)
 ShowMessageFace("namako_fc1",0,0,2,62)
 ShowMessage("\\n<Yume>Things have gotten a bit more serious...")
 0()
EndIf()
If(4,108,0)
 ShowMessageFace("kai_fc1",0,0,2,63)
 ShowMessage("\\n<Shelly>I'll follow my husband anywhere...")
 0()
EndIf()
If(4,109,0)
 ShowMessageFace("kani_fc1",0,0,2,64)
 ShowMessage("\\n<Soapy>Keep giving me chances to display my skill!")
 0()
EndIf()
If(4,110,0)
 ShowMessageFace("slimelord_fc1",0,0,2,65)
 ShowMessage("\\n<Bess>Sounds kinda fun! ♪")
 0()
EndIf()
If(4,111,0)
 ShowMessageFace("suika_fc1",0,0,2,66)
 ShowMessage("\\n<Melon>Well, even though you do eat watermelons...")
 0()
EndIf()
If(4,112,0)
 ShowMessageFace("utubo_fc1",0,0,2,67)
 ShowMessage("\\n<Kazura>Ahaha, I better work harder! ♪")
 0()
EndIf()
If(4,113,0)
 ShowMessageFace("lamia_fc1",0,0,2,68)
 ShowMessage("\\n<Anastasia>Fufu, just what I've always wanted...")
 0()
EndIf()
If(4,114,0)
 ShowMessageFace("wakame_fc1",0,0,2,69)
 ShowMessage("\\n<Wakame>Seaweed *sway*")
 0()
EndIf()
If(4,115,0)
 ShowMessageFace("kurage_fc1",0,0,2,70)
 ShowMessage("\\n<Kurage>*Bubble* *Bubble*")
 0()
EndIf()
If(4,116,0)
 ShowMessageFace("iso_fc1",0,0,2,71)
 ShowMessage("\\n<Isabelle>Fufu, sounds interesting...")
 0()
EndIf()
If(4,117,0)
 ShowMessageFace("ankou_fc1",0,0,2,72)
 ShowMessage("\\n<Anko>......")
 0()
EndIf()
If(4,118,0)
 ShowMessageFace("meia_fc1",0,0,2,73)
 ShowMessage("\\n<Meia>I've got your back, too.")
 0()
EndIf()
If(4,119,0)
 ShowMessageFace("page17_fc1",0,0,2,74)
 ShowMessage("\\n<Annie>My full power is yours...")
 0()
EndIf()
If(4,120,0)
 ShowMessageFace("page257_fc1",0,0,2,75)
 ShowMessage("\\n<Yoko>Let's not get too eager...")
 0()
EndIf()
If(4,121,0)
 ShowMessageFace("page65537_fc1",0,0,2,76)
 ShowMessage("\\n<Cornelia>I fight only for the things I believe in...")
 0()
EndIf()
If(4,122,0)
 ShowMessageFace("sisterlamia_fc1",0,0,2,77)
 ShowMessage("\\n<Sofia>Goddess, please guide us...")
 0()
EndIf()
If(4,123,0)
 ShowMessageFace("sisccubus_fc1",0,0,2,78)
 ShowMessage("\\n<Christie>Goddess, please protect us...")
 0()
EndIf()
If(4,124,0)
 ShowMessageFace("arikui_fc1",0,0,2,79)
 ShowMessage("\\n<Kyona>More ants to eat?")
 0()
EndIf()
If(4,125,0)
 ShowMessageFace("grizzly_fc1",0,0,2,80)
 ShowMessage("\\n<Aisha>Bearrrr!")
 0()
EndIf()
If(4,126,0)
 ShowMessageFace("XX-7_fc1",0,0,2,81)
 ShowMessage("\\n<Robin>I'll lend you my strength...")
 0()
EndIf()
If(4,127,0)
 ShowMessageFace("littlebug_fc1",0,0,2,82)
 ShowMessage("\\n<Lippy>Oooh, this sounds kinda fun!")
 0()
EndIf()
If(4,128,0)
 ShowMessageFace("kaniloid_fc1",0,0,2,83)
 ShowMessage("\\n<Jillian>Yes, let's go...")
 0()
EndIf()
If(4,130,0)
 ShowMessageFace("ghost_fc1",0,0,2,84)
 ShowMessage("\\n<Carrie>It looks like I still have more to do in this world...")
 0()
EndIf()
If(4,131,0)
 ShowMessageFace("doll_fc1",0,0,2,85)
 ShowMessage("\\n<Miyabi>Hehe... Let's play together a lot more...")
 0()
EndIf()
If(4,132,0)
 ShowMessageFace("zonbe_fc2",0,0,2,86)
 ShowMessage("\\n<Eri>My sword will never rot...")
 0()
EndIf()
If(4,133,0)
 ShowMessageFace("zonbe_fc3",3,0,2,87)
 ShowMessage("\\n<Zombies>Moaaaannnn...")
 0()
EndIf()
If(4,134,0)
 ShowMessageFace("chrom_fc2",0,0,2,88)
 ShowMessage("\\n<Chrome>I'm always operating at max power!")
 0()
EndIf()
If(4,135,0)
 ShowMessageFace("frederika_fc1",0,0,2,89)
 ShowMessage("\\n<Frederica>For Chrome...")
 0()
EndIf()
If(4,136,0)
 ShowMessageFace("elf_fc1",0,0,2,90)
 ShowMessage("\\n<Claudia>I fight for everyone in the forests!")
 0()
EndIf()
If(4,137,0)
 ShowMessageFace("braunys_fc1",6,0,2,91)
 ShowMessage("\\n<Love & Lamb>Lots of work for us to do! ♪")
 0()
EndIf()
If(4,138,0)
 ShowMessageFace("tfairy_fc1",0,0,2,92)
 ShowMessage("\\n<Mil & Lil>We'll do our best, too! ♪")
 0()
EndIf()
If(4,139,0)
 ShowMessageFace("fairys_fc1",3,0,2,93)
 ShowMessage("\\n<Fairies>Yay! Where do we get to play next?")
 0()
EndIf()
If(4,140,0)
 ShowMessageFace("taran_fc1",0,0,2,94)
 ShowMessage("\\n<Rachura>I shall personally bring peace...")
 0()
EndIf()
If(4,141,0)
 ShowMessageFace("mino_fc1",0,0,2,95)
 ShowMessage("\\n<Mina>Let's do it! Full power!")
 0()
EndIf()
If(4,142,0)
 ShowMessageFace("bander_fc1",0,0,2,96)
 ShowMessage("\\n<Banachi>I must put this power to use...")
 0()
EndIf()
If(4,143,0)
 ShowMessageFace("eva_fc1",2,0,2,97)
 ShowMessage("\\n<Eva>Eh...? Oh, yeah! I'm coming!")
 0()
EndIf()
If(4,144,0)
 ShowMessageFace("saboresu_fc1",0,0,2,98)
 ShowMessage("\\n<Sunny>The sea is waiting for me...")
 0()
EndIf()
If(4,145,0)
 ShowMessageFace("mukade_fc1",0,0,2,99)
 ShowMessage("\\n<Vanessa>I may not be liked, but when the time comes, I'm in.")
 0()
EndIf()
If(4,146,0)
 ShowMessageFace("sasori_fc1",0,0,2,100)
 ShowMessage("\\n<Scarlet>I'm coming with you...")
 0()
EndIf()
If(4,147,0)
 ShowMessageFace("saboten_fc1",0,0,2,101)
 ShowMessage("\\n<Casta>Oh my, how wonderful...♪")
 0()
EndIf()
If(4,148,0)
 ShowMessageFace("datyou_fc1",3,0,2,102)
 ShowMessage("\\n<Miu>I'm all fired up!")
 0()
EndIf()
If(4,149,0)
 ShowMessageFace("lamp_fc1",0,0,2,103)
 ShowMessage("\\n<Jeannie>Your wish is my command...")
 0()
EndIf()
If(4,150,0)
 ShowMessageFace("mummy_fc1",0,0,2,104)
 ShowMessage("\\n<Patra>I shall carry out my new orders...")
 0()
EndIf()
If(4,151,0)
 ShowMessageFace("kobura_fc1",0,0,2,105)
 ShowMessage("\\n<Lila>Well, hasn't this gotten interesting, fufufu...")
 0()
EndIf()
If(4,152,0)
 ShowMessageFace("lamias_fc2",4,0,2,106)
 ShowMessage("\\n<Nefertiti Lamias>Peace must be brought to the world...")
 0()
EndIf()
If(4,154,0)
 ShowMessageFace("wani_fc1",0,0,2,107)
 ShowMessage("\\n<Gaa>Gaa...")
 0()
EndIf()
If(4,155,0)
 ShowMessageFace("saki_fc1",3,0,2,108)
 ShowMessage("\\n<Saki>No need to fear, Saki's here! ☆")
 0()
EndIf()
If(4,156,0)
 ShowMessageFace("d_fighter_fc1",3,0,2,109)
 ShowMessage("\\n<Regina>I wield my sword in your defense!")
 0()
EndIf()
If(4,157,0)
 ShowMessageFace("oogumo_fc1",0,0,2,110)
 ShowMessage("\\n<Ashidaka>I'm kinda fired up!")
 0()
EndIf()
If(4,158,0)
 ShowMessageFace("suckvore_fc1",2,0,2,111)
 ShowMessage("\\n<Anna>......")
 0()
EndIf()
If(4,159,0)
 ShowMessageFace("ironmaiden_fc1",0,0,2,112)
 ShowMessage("\\n<Maiden>......")
 0()
EndIf()
If(4,160,0)
 ShowMessageFace("wormv_fc1",1,0,2,113)
 ShowMessage("\\n<Julia>I will use this power for the good of all...")
 0()
EndIf()
If(4,161,0)
 ShowMessageFace("ustrel_fc1",0,0,2,114)
 ShowMessage("\\n<Lemon>My strength should be useful...")
 0()
EndIf()
If(4,162,0)
 ShowMessageFace("mitutubo_fc1",0,0,2,115)
 ShowMessage("\\n<Mitsuko>Even I won't slack off!")
 0()
EndIf()
If(4,163,0)
 ShowMessageFace("lily_fc1",0,0,2,116)
 ShowMessage("\\n<Lily>Saving the weak? Yes, that's my duty.")
 0()
EndIf()
If(4,164,0)
 ShowMessageFace("kooni_fc1",0,0,2,117)
 ShowMessage("\\n<Shizuku>I'll clear the way forward with my club!")
 0()
EndIf()
If(4,165,0)
 ShowMessageFace("onaho_fc1",0,0,2,118)
 ShowMessage("\\n<Naho>I definitely won't hold you back. ♪")
 0()
EndIf()
If(4,166,0)
 ShowMessageFace("narcubus_fc1",0,0,2,119)
 ShowMessage("\\n<Nabisu>Everyone, please try not to hurt yourselves. ♪")
 0()
EndIf()
If(4,167,0)
 ShowMessageFace("lusia_fc1",0,0,2,120)
 ShowMessage("\\n<Lucia>I shall use this power for the good of the world...")
 0()
EndIf()
If(4,168,0)
 ShowMessageFace("dodome_fc1",0,0,2,121)
 ShowMessage("\\n<Manako>I'll travel with you anywhere!")
 0()
EndIf()
If(4,169,0)
 ShowMessageFace("lizardthief_fc1",0,0,2,122)
 ShowMessage("\\n<Liru>All right, let's get fired up and move out!")
 0()
EndIf()
If(4,170,0)
 ShowMessageFace("lizardthief_fc2",0,0,2,123)
 ShowMessage("\\n<Len>I foresee no shortage of training opportunities in our future...")
 0()
EndIf()
If(4,171,0)
 ShowMessageFace("lizardboss_fc1",0,0,2,124)
 ShowMessage("\\n<Miranda>It's time for the scale bandits to shine!")
 0()
EndIf()
If(4,172,0)
 ShowMessageFace("sinkiro_fc1",0,0,2,125)
 ShowMessage("\\n<Mirage>I'll do my best, too. ♪")
 0()
EndIf()
If(4,173,0)
 ShowMessageFace("arizigoku_fc1",0,0,2,126)
 ShowMessage("\\n<Helen>It's all very interesting, isn't it...")
 0()
EndIf()
If(4,174,0)
 ShowMessageFace("sandw_fc1",0,0,2,127)
 ShowMessage("\\n<Dahlia>Huh? What? Zzzz...")
 0()
EndIf()
If(4,175,0)
 ShowMessageFace("d_scylla_fc1",0,0,2,128)
 ShowMessage("\\n<Deiji>Okay, let's go, let's go! ♪")
 0()
EndIf()
If(4,176,0)
 ShowMessageFace("vitae_fc1",0,0,2,129)
 ShowMessage("\\n<Vitae>I shall accompany you...")
 0()
EndIf()
If(4,177,0)
 ShowMessageFace("vetala_fc1",0,0,2,130)
 ShowMessage("\\n<Vetala>You can count on my help, too! ♪")
 0()
EndIf()
If(4,178,0)
 ShowMessageFace("valt_fc1",0,0,2,131)
 ShowMessage("\\n<Valto>Following...")
 0()
EndIf()
If(4,179,0)
 ShowMessageFace("sinifa_fc1",0,0,2,132)
 ShowMessage("\\n<Shinifa>Aaaahahaha!")
 0()
EndIf()
If(4,180,0)
 ShowMessageFace("shadow_fc1",0,0,2,133)
 ShowMessage("\\n<Shadow>The shadow never strays...")
 0()
EndIf()
If(4,181,0)
 ShowMessageFace("gaistvine_fc1",0,0,2,134)
 ShowMessage("\\n<Lisa>I haven't lost my luster yet...")
 0()
EndIf()
If(4,182,0)
 ShowMessageFace("c_homunculus_fc1",0,0,2,135)
 ShowMessage("\\n<Crowley>I shall do what needs to be done...")
 0()
EndIf()
If(4,183,0)
 ShowMessageFace("ironmaiden_k_fc1",0,0,2,136)
 ShowMessage("\\n<Torture>I will judge the sinners...")
 0()
EndIf()
If(4,184,0)
 ShowMessageFace("junkdoll_fc2",0,0,2,137)
 ShowMessage("\\n<Francesca>We must do what we can before the world is ruined...")
 0()
EndIf()
If(4,185,0)
 ShowMessageFace("radio_fc1",0,0,2,138)
 ShowMessage("\\n<Radio>I shall perSEVere...")
 0()
EndIf()
If(4,540,0)
 ShowMessageFace("amira_fc1",0,0,2,139)
 ShowMessage("\\n<Amira>Muwahaha...")
 0()
EndIf()
If(4,541,0)
 ShowMessageFace("piha_fc1",0,0,2,140)
 ShowMessage("\\n<Pyhar>Splendid. ♪")
 0()
EndIf()
If(4,542,0)
 ShowMessageFace("domeima_fc1",0,0,2,141)
 ShowMessage("\\n<Domaimer>Wa-water...")
 0()
EndIf()
If(4,544,0)
 ShowMessageFace("mob_maid_fc1",0,0,2,142)
 ShowMessage("\\n<Marie>I'll keep you company, fufufu...")
 0()
EndIf()
If(4,545,0)
 ShowMessageFace("mob_murabito1_fc1",0,0,2,143)
 ShowMessage("\\n<Eri>I may not be powerful, but I'll help the best I can...")
 0()
EndIf()
If(4,546,0)
 ShowMessageFace("mob_hurou_fc1",0,0,2,144)
 ShowMessage("\\n<Stella>Will we be rich if we save the world...?")
 0()
EndIf()
If(4,547,0)
 ShowMessageFace("dondaria_fc1",0,0,2,145)
 ShowMessage("\\n<Don Dahlia>Oh man, what are we sticking our noses into...")
 0()
EndIf()
If(4,548,0)
 ShowMessageFace("mob_bunny1_fc1",0,0,2,146)
 ShowMessage("\\n<Bunny-chan>Yay! ♪")
 0()
EndIf()
If(4,549,0)
 ShowMessageFace("mob_touzoku_fc1",0,0,2,147)
 ShowMessage("\\n<Louise>Haha, this adventure is getting interesting!")
 0()
EndIf()
If(4,550,0)
 ShowMessageFace("mob_kakutou_fc1",1,0,2,148)
 ShowMessage("\\n<Mei-Lin>I'm itching to put my skills to use!")
 0()
EndIf()
If(4,551,0)
 ShowMessageFace("mob_maid1_fc1",0,0,2,149)
 ShowMessage("\\n<Kate>Of course I'll help.")
 0()
EndIf()
If(4,552,0)
 ShowMessageFace("mob_elf1_fc1",0,0,2,150)
 ShowMessage("\\n<Elissa>...I'll try my best, too.")
 0()
EndIf()
If(4,553,0)
 ShowMessageFace("mob_gakusya1_fc1",0,0,2,151)
 ShowMessage("\\n<Fizz>Too late to turn back now...")
 0()
EndIf()
If(4,554,0)
 ShowMessageFace("mob_nasu1_fc1",0,0,2,152)
 ShowMessage("\\n<Nightingale>Ufufu, the world is my patient...♪")
 0()
EndIf()
If(4,555,0)
 ShowMessageFace("mob_murabito2_fc1",0,0,2,153)
 ShowMessage("\\n<Teresa>...???")
 0()
EndIf()
If(4,556,0)
 ShowMessageFace("mob_sister1_fc1",0,0,2,154)
 ShowMessage("\\n<Maria>Goddess, please lend us your guidance...")
 0()
EndIf()
If(4,557,0)
 ShowMessageFace("justice_fc1",0,0,2,155)
 ShowMessage("\\n<Juska>Saving the world is exactly what a hero is for!!")
 0()
EndIf()
If(4,558,0)
 ShowMessageFace("mob_uranai1_fc1",0,0,2,156)
 ShowMessage("\\n<Naia>Even my fortune telling can't see the future now...")
 0()
EndIf()
If(4,559,0)
 ShowMessageFace("mob_assasin1_fc1",1,0,2,157)
 ShowMessage("\\n<Salaan>I shall suffer for the sake of the world.")
 0()
EndIf()
If(4,560,0)
 ShowMessageFace("mob_odoriko1_fc1",0,0,2,158)
 ShowMessage("\\n<Melody>I'll help everyone with plenty of dancing! ♪")
 0()
EndIf()
If(4,561,0)
 ShowMessageFace("mob_majyo1_fc1",0,0,2,159)
 ShowMessage("\\n<Witchy>Hihihi, it's getting interesting...")
 0()
EndIf()
If(4,562,0)
 ShowMessageFace("mob_bukiya1_fc1",0,0,2,160)
 ShowMessage("\\n<Orlan>The stakes are high, but we must press on!")
 0()
EndIf()
If(4,563,0)
 ShowMessageFace("People4",7,0,2,161)
 ShowMessage("\\n<Pilate>You have my full cooperation!")
 0()
EndIf()
If(4,564,0)
 ShowMessageFace("Actor1",4,0,2,162)
 ShowMessage("\\n<John>I'll fight for the world until I can give no more!")
 0()
EndIf()
If(4,565,0)
 ShowMessageFace("Actor3",6,0,2,163)
 ShowMessage("\\n<Samson>For the world!")
 0()
EndIf()
If(4,566,0)
 ShowMessageFace("sukatoro_fc1",4,0,2,164)
 ShowMessage("\\n<Scat Captain>Let's have a go at it!")
 0()
EndIf()
If(4,567,0)
 ShowMessageFace("pants_fc1",0,0,2,165)
 ShowMessage("\\n<Panty Sensei>Aaah, I can't help it...")
 0()
EndIf()
0()
