// EVENT 4422
Name "XX-7 2"

If(0,25,1)
 221()
 PictureClear(5)
 PictureClear(6)
 ShowMessageFace("",0,0,2,0)
 ShowMessage("......")
 242(2)
 Wait(120)
 241(bytes(0x04,0x08,0x6f,0x3a,0x0d,0x52,0x50,0x47,0x3a,0x3a,0x42,0x47,0x4d,0x08,0x3a,0x0a,0x40,0x6e,0x61,0x6d,0x65,0x49,0x22,0x0c,0x63,0x61,0x73,0x74,0x6c,0x65,0x36,0x06,0x3a,0x06,0x45,0x54,0x3a,0x0c,0x40,0x76,0x6f,0x6c,0x75,0x6d,0x65,0x69,0x69,0x3a,0x0b,0x40,0x70,0x69,0x74,0x63,0x68,0x69,0x69))
 EndEventProcessing()
 0()
EndIf()
PictureDisplay(5,"80_XX-7_st01",0,0,0,0,100,100,255,0)
ShowMessageFace("XX-7_fc1",0,0,2,1)
ShowMessage("\\n<Robin>You want your semen sucked out...\nYou sure you won't regret it later...?")
ShowMessageFace("",0,0,2,2)
ShowMessage("\\n<Luka>P-please...")
ShowMessageFace("XX-7_fc1",0,0,2,3)
ShowMessage("\\n<Robin>It can't be helped, well then...")
241(bytes(0x04,0x08,0x6f,0x3a,0x0d,0x52,0x50,0x47,0x3a,0x3a,0x42,0x47,0x4d,0x08,0x3a,0x0a,0x40,0x6e,0x61,0x6d,0x65,0x49,0x22,0x09,0x65,0x72,0x6f,0x31,0x06,0x3a,0x06,0x45,0x54,0x3a,0x0c,0x40,0x76,0x6f,0x6c,0x75,0x6d,0x65,0x69,0x69,0x3a,0x0b,0x40,0x70,0x69,0x74,0x63,0x68,0x69,0x69))
PictureDisplay(5,"ev_XX-7_hb1",0,0,0,0,100,100,0,0)
PictureMove(5,null,0,0,0,0,100,100,255,0,30,true)
ShowMessageFace("",0,0,2,4)
ShowMessage("Tentacles coil around my body and instantly restrain my movement.")
ShowMessage("The semen sucking tentacle approaches my penis.")
ShowMessageFace("XX-7_fc1",0,0,2,5)
ShowMessage("\\n<Robin>These are specifically used for sucking dry and killing prey.\nI'll use it to pleasure you, be grateful...")
ShowMessageFace("",0,0,2,6)
ShowMessage("\\n<Luka>Y-you w-won't squeeze me to death...?")
ShowMessageFace("XX-7_fc1",0,0,2,7)
ShowMessage("\\n<Robin>My extraction device has a function to suck everything out to the last drop...\nYou're an ally so I will not squeeze you to death.")
ShowMessageFace("",0,0,2,8)
ShowMessage("Slowly her tentacle approaches my penis...")
ShowMessage("It's as if the countdown of my expectations started.")
ShowMessageFace("",0,0,2,9)
ShowMessage("\\n<Luka>Stop...Stoop...\nAaah...")
245(bytes(0x04,0x08,0x6f,0x3a,0x0d,0x52,0x50,0x47,0x3a,0x3a,0x42,0x47,0x53,0x08,0x3a,0x0a,0x40,0x6e,0x61,0x6d,0x65,0x49,0x22,0x1a,0x6d,0x6f,0x6e,0x5f,0x68,0x73,0x65,0x61,0x6e,0x32,0x31,0x5f,0x74,0x65,0x6e,0x74,0x61,0x63,0x6c,0x65,0x32,0x06,0x3a,0x06,0x45,0x54,0x3a,0x0c,0x40,0x76,0x6f,0x6c,0x75,0x6d,0x65,0x69,0x55,0x3a,0x0b,0x40,0x70,0x69,0x74,0x63,0x68,0x69,0x69))
PictureDisplay(5,"ev_XX-7_hb2",0,0,0,0,100,100,255,0)
ShowMessageFace("",0,0,2,10)
ShowMessage("And what I was waiting for finally starts.")
ShowMessage("My penis is swallowed by the tentacle.")
ShowMessageFace("",0,0,2,11)
ShowMessage("\\n<Luka>A-amazing...That feels so good...")
ShowMessageFace("",0,0,2,12)
ShowMessage("Tentacle starts its semen squeezing motions.")
ShowMessage("At the same time, my meat rod is soaked in exquisite pleasure...")
ShowMessageFace("",0,0,2,13)
ShowMessage("The tentacle clings to my penis and sweetly undulates inside.")
ShowMessage("It tightens around my glans and squeezes my whole penis gently.")
ShowMessageFace("",0,0,2,14)
ShowMessage("It felt just like my penis was gently rubbed.")
ShowMessageFace("XX-7_fc1",0,0,2,15)
ShowMessage("\\n<Robin>You can't hold back anymore...\nNow, ejaculate...")
ShowMessageFace("",0,0,2,16)
ShowMessage("\\n<Luka>Augh...Ugh...")
ShowMessageFace("",0,0,2,17)
ShowMessage("The pleasure is enough to squeeze a man dry.")
ShowMessage("In response to the strong simulation, my penis starts pulsating like mad continuously...")
ShowMessageFace("",0,0,2,18)
ShowMessage("\\n<Luka>Ah, aaaaaah!!")
246(2)
RunCommonEvent(104)
PictureDisplay(5,"ev_XX-7_hb3",0,0,0,0,100,100,255,0)
RunCommonEvent(105)
ShowMessageFace("",0,0,2,19)
ShowMessage("My semen shoots inside this nightmarish semen extraction organ...")
ShowMessage("The walls of the tentacle squeeze me in tandem with my pulsations, wringing out every last drop of my semen.")
ShowMessageFace("",0,0,2,20)
ShowMessage("Once it was finished sucking up all the semen, the undulating movement stops.")
ShowMessage("I'm rudely awakened from my comfortable pleasure...")
ShowMessageFace("XX-7_fc1",0,0,2,21)
ShowMessage("\\n<Robin>It felt good...\nNormally after this, you're squeezed of your semen until you die.")
ShowMessageFace("XX-7_fc1",0,0,2,22)
ShowMessage("\\n<Robin>All the sperm is sucked out until you become nothing but a corpse.\nHey, you want to try...?")
ShowMessageFace("",0,0,2,23)
ShowMessage("\\n<Luka>No, I think that's enough...")
ShowMessageFace("XX-7_fc1",0,0,2,24)
ShowMessage("\\n<Robin>Yes, sorry...\nTell me if you want to, though.")
ShowMessageFace("",0,0,2,25)
ShowMessage("\\n<Luka>......")
221()
PictureClear(5)
ShowMessageFace("",0,0,2,26)
ShowMessage("Robin releases me from her tentacles.")
ShowMessageFace("",0,0,2,27)
ShowMessage("If she didn't, I would have been squeezed dry...")
ShowMessage("I hide the fact that her offer seemed tempting...")
ShowMessageFace("",0,0,2,28)
ShowMessage("......")
242(2)
Wait(120)
241(bytes(0x04,0x08,0x6f,0x3a,0x0d,0x52,0x50,0x47,0x3a,0x3a,0x42,0x47,0x4d,0x08,0x3a,0x0a,0x40,0x6e,0x61,0x6d,0x65,0x49,0x22,0x0c,0x63,0x61,0x73,0x74,0x6c,0x65,0x36,0x06,0x3a,0x06,0x45,0x54,0x3a,0x0c,0x40,0x76,0x6f,0x6c,0x75,0x6d,0x65,0x69,0x69,0x3a,0x0b,0x40,0x70,0x69,0x74,0x63,0x68,0x69,0x69))
0()
