﻿// EVENT 4563
Name "Nefertiti Lamias 3"

If(0,25,1)
 221()
 PictureClear(5)
 PictureClear(6)
 ShowMessageFace("",0,0,2,0)
 ShowMessage("......")
 242(2)
 Wait(120)
 241(bytes(0x04,0x08,0x6f,0x3a,0x0d,0x52,0x50,0x47,0x3a,0x3a,0x42,0x47,0x4d,0x08,0x3a,0x0a,0x40,0x6e,0x61,0x6d,0x65,0x49,0x22,0x0c,0x63,0x61,0x73,0x74,0x6c,0x65,0x36,0x06,0x3a,0x06,0x45,0x54,0x3a,0x0c,0x40,0x76,0x6f,0x6c,0x75,0x6d,0x65,0x69,0x69,0x3a,0x0b,0x40,0x70,0x69,0x74,0x63,0x68,0x69,0x69))
 EndEventProcessing()
 0()
EndIf()
PictureDisplay(5,"80_lamias_st03",0,0,0,0,100,100,255,0)
ShowMessageFace("lamias_fc1",6,0,2,1)
ShowMessage("\\n<Third Oldest Lamia>Ahaha, you want me to fuck you?")
ShowMessageFace("",0,0,2,2)
ShowMessage("\\n<Luka>P-please...")
ShowMessageFace("lamias_fc1",6,0,2,3)
ShowMessage("\\n<Third Oldest Lamia>All right, I'll be your partner.\nIn my favorite way. ♪")
ShowMessageFace("",0,0,2,4)
ShowMessage("The lamia's tail winds around my body.\nAfter sealing my movement, she draws me toward her...")
241(bytes(0x04,0x08,0x6f,0x3a,0x0d,0x52,0x50,0x47,0x3a,0x3a,0x42,0x47,0x4d,0x08,0x3a,0x0a,0x40,0x6e,0x61,0x6d,0x65,0x49,0x22,0x09,0x65,0x72,0x6f,0x31,0x06,0x3a,0x06,0x45,0x54,0x3a,0x0c,0x40,0x76,0x6f,0x6c,0x75,0x6d,0x65,0x69,0x69,0x3a,0x0b,0x40,0x70,0x69,0x74,0x63,0x68,0x69,0x69))
250(bytes(0x04,0x08,0x6f,0x3a,0x0c,0x52,0x50,0x47,0x3a,0x3a,0x53,0x45,0x08,0x3a,0x0a,0x40,0x6e,0x61,0x6d,0x65,0x49,0x22,0x16,0x6d,0x6f,0x6e,0x5f,0x65,0x72,0x6f,0x5f,0x73,0x69,0x6d,0x65,0x74,0x75,0x6b,0x65,0x31,0x06,0x3a,0x06,0x45,0x54,0x3a,0x0b,0x40,0x70,0x69,0x74,0x63,0x68,0x69,0x69,0x3a,0x0c,0x40,0x76,0x6f,0x6c,0x75,0x6d,0x65,0x69,0x69))
PictureDisplay(5,"ev_lamias_hc1",0,0,0,0,100,100,255,0)
ShowMessageFace("",0,0,2,5)
ShowMessage("The lamia pushes her ass against me.\nHer soft butt presses against my penis.")
ShowMessageFace("lamias_fc1",6,0,2,6)
ShowMessage("\\n<Third Oldest Lamia>I'll violate you with my ass.\nPlease shoot your semen out into where I shit from. ♪")
ShowMessageFace("",0,0,2,7)
ShowMessage("\\n<Luka>Ah, aaaah...!!")
ShowMessageFace("",0,0,2,8)
ShowMessage("Using her tail, she skillfully manipulates my body.")
245(bytes(0x04,0x08,0x6f,0x3a,0x0d,0x52,0x50,0x47,0x3a,0x3a,0x42,0x47,0x53,0x08,0x3a,0x0a,0x40,0x6e,0x61,0x6d,0x65,0x49,0x22,0x1e,0x6d,0x6f,0x6e,0x5f,0x68,0x73,0x65,0x61,0x6e,0x30,0x35,0x5f,0x69,0x6e,0x6e,0x65,0x72,0x77,0x6f,0x72,0x6b,0x73,0x5f,0x61,0x35,0x06,0x3a,0x06,0x45,0x54,0x3a,0x0c,0x40,0x76,0x6f,0x6c,0x75,0x6d,0x65,0x69,0x55,0x3a,0x0b,0x40,0x70,0x69,0x74,0x63,0x68,0x69,0x69))
ShowMessageFace("",0,0,2,9)
ShowMessage("My penis is forcibly pushed into her ass.")
ShowMessageFace("",0,0,2,10)
ShowMessage("\\n<Luka>Ooooh...!")
ShowMessageFace("",0,0,2,11)
ShowMessage("Her ass is tight, and seems to almost bend.\nIt's a unique feel, different from a vagina.")
ShowMessageFace("lamias_fc1",6,0,2,12)
ShowMessage("\\n<Third Oldest Lamia>How is my ass...?\nAren't you just loving it? ♪")
ShowMessageFace("",0,0,2,13)
ShowMessage("The lamia starts to wriggle her body.\nAt the same time, she clenches down on her anus, squeezing me.")
ShowMessageFace("",0,0,2,14)
ShowMessage("\\n<Luka>Aiyeee...!")
ShowMessageFace("lamias_fc1",6,0,2,15)
ShowMessage("\\n<Third Oldest Lamia>Ahaha, listen to that indecent moan.\nYour penis is deep in my ass, you know?")
ShowMessageFace("lamias_fc1",6,0,2,16)
ShowMessage("\\n<Third Oldest Lamia>I want you to come where I shit from.\nThat's quite an embarrassing thing to do, don't you think? ♪")
ShowMessageFace("",0,0,2,17)
ShowMessage("While giggling, the Lamia tightens her ass to crush my penis. Deep inside her, the incredible tightness feels too good to endure.")
ShowMessageFace("",0,0,2,18)
ShowMessage("Her anus twitches as she squeezes.\nThe desire to ejaculate suddenly rises in me.")
ShowMessageFace("",0,0,2,19)
ShowMessage("But I use the last of my energy to hold back, enduring it.")
ShowMessageFace("",0,0,2,20)
ShowMessage("\\n<Luka>Auu... Guh...")
ShowMessageFace("lamias_fc1",6,0,2,21)
ShowMessage("\\n<Third Oldest Lamia>Ahaha, you're holding back?\nYou're trying so hard... But it's useless you know...♪")
ShowMessageFace("",0,0,2,22)
ShowMessage("\\n<Luka>Eh...? Aaah!!")
ShowMessageFace("",0,0,2,23)
ShowMessage("Her tail, coiled around me, forces my waist to push into her. Controlled by her tail, I'm forced to thrust in and out of her ass.")
ShowMessageFace("",0,0,2,24)
ShowMessage("\\n<Luka>S-stoooop...! D-don't do...")
ShowMessageFace("lamias_fc1",6,0,2,25)
ShowMessage("\\n<Third Oldest Lamia>Ahaha... If you move like that...\nYou'll come in an instant.")
ShowMessageFace("lamias_fc1",6,0,2,26)
ShowMessage("\\n<Third Oldest Lamia>Now go ahead and come in my ass. ♪")
ShowMessageFace("",0,0,2,27)
ShowMessage("\\n<Luka>Nnngh... Aaaaaah!!")
ShowMessageFace("",0,0,2,28)
ShowMessage("I thrust in and out of her against my will.\nMy penis goes in and out of her tight ass.")
ShowMessageFace("",0,0,2,29)
ShowMessage("Each thrust in, my glans rubs against her tight flesh.\nAnd on the way out, the neck of my penis is pulled back by her squeezing anus.")
ShowMessageFace("",0,0,2,30)
ShowMessage("In no time at all, I submit to the forced thrusting.")
ShowMessageFace("",0,0,2,31)
ShowMessage("\\n<Luka>Ah, aaaah...!!")
RunCommonEvent(104)
PictureDisplay(5,"ev_lamias_hc2",0,0,0,0,100,100,255,0)
RunCommonEvent(105)
ShowMessageFace("",0,0,2,32)
ShowMessage("My semen pours into her asshole.\nForced to thrust into her ass, I only feel pleasure from the result...")
246(1)
ShowMessageFace("lamias_fc1",6,0,2,33)
ShowMessage("\\n<Third Oldest Lamia>Your semen is delicious.\nWhy not share it with my other sisters? ♪")
ShowMessageFace("",0,0,2,34)
ShowMessage("\\n<Luka>......")
ShowMessageFace("",0,0,2,35)
ShowMessage("I'm too weak to do anything else.\nThe other sisters around me giggle as they stare at me.")
ShowMessageFace("",0,0,2,36)
ShowMessage("These girls are looking at me as if I'm prey...\nI may have no choice but to feed them.")
221()
PictureClear(5)
ShowMessageFace("",0,0,2,37)
ShowMessage("......")
242(2)
Wait(120)
241(bytes(0x04,0x08,0x6f,0x3a,0x0d,0x52,0x50,0x47,0x3a,0x3a,0x42,0x47,0x4d,0x08,0x3a,0x0a,0x40,0x6e,0x61,0x6d,0x65,0x49,0x22,0x0c,0x63,0x61,0x73,0x74,0x6c,0x65,0x36,0x06,0x3a,0x06,0x45,0x54,0x3a,0x0c,0x40,0x76,0x6f,0x6c,0x75,0x6d,0x65,0x69,0x69,0x3a,0x0b,0x40,0x70,0x69,0x74,0x63,0x68,0x69,0x69))
0()
